…
Problem 3: I'm not really sure what the difference between `extract` and `separate` is. As for why there are multiple versions of `separate`, it's likely because there are many ways to separate a column into new columns (for example, there can be any number of output columns) but there is only one way to combine several columns into one (a single output). 

###12.6.1 Problems

Problem 3: 

```r
#Are `iso2` and `iso3` actually redundant in `who`?
who
```

```
## # A tibble: 7,240 x 60
##    country iso2  iso3   year new_sp_m014 new_sp_m1524 new_sp_m2534
##    <chr>   <chr> <chr> <int>       <int>        <int>        <int>
##  1 Afghan~ AF    AFG    1980          NA           NA           NA
##  2 Afghan~ AF    AFG    1981          NA           NA           NA
##  3 Afghan~ AF    AFG    1982          NA           NA           NA
##  4 Afghan~ AF    AFG    1983          NA           NA           NA
##  5 Afghan~ AF    AFG    1984          NA           NA           NA
##  6 Afghan~ AF    AFG    1985          NA           NA           NA
##  7 Afghan~ AF    AFG    1986          NA           NA           NA
##  8 Afghan~ AF    AFG    1987          NA           NA           NA
##  9 Afghan~ AF    AFG    1988          NA           NA           NA
## 10 Afghan~ AF    AFG    1989          NA           NA           NA
## # ... with 7,230 more rows, and 53 more variables: new_sp_m3544 <int>,
## #   new_sp_m4554 <int>, new_sp_m5564 <int>, new_sp_m65 <int>,
## #   new_sp_f014 <int>, new_sp_f1524 <int>, new_sp_f2534 <int>,
## #   new_sp_f3544 <int>, new_sp_f4554 <int>, new_sp_f5564 <int>,
## #   new_sp_f65 <int>, new_sn_m014 <int>, new_sn_m1524 <int>,
## #   new_sn_m2534 <int>, new_sn_m3544 <int>, new_sn_m4554 <int>,
## #   new_sn_m5564 <int>, new_sn_m65 <int>, new_sn_f014 <int>,
## #   new_sn_f1524 <int>, new_sn_f2534 <int>, new_sn_f3544 <int>,
## #   new_sn_f4554 <int>, new_sn_f5564 <int>, new_sn_f65 <int>,
…
```r
Checktrue <- tibble(country = who$country, iso2 = who$iso2, iso3 = who$iso3)
Checktrue
```

```
## # A tibble: 7,240 x 3
##    country     iso2  iso3 
##    <chr>       <chr> <chr>
##  1 Afghanistan AF    AFG  
##  2 Afghanistan AF    AFG  
##  3 Afghanistan AF    AFG  
##  4 Afghanistan AF    AFG  
##  5 Afghanistan AF    AFG  
##  6 Afghanistan AF    AFG  
##  7 Afghanistan AF    AFG  
##  8 Afghanistan AF    AFG  
##  9 Afghanistan AF    AFG  
## 10 Afghanistan AF    AFG  
## # ... with 7,230 more rows
```
…
Checktrue2 <- Checktrue %>%
  unite(col = Designation, country, iso2, iso3, sep = "_") %>%
  group_by(Designation) %>%
  summarise() %>%
  separate(col = Designation, into = c("Country", "iso2", "iso3"), sep = "_")

check <- Checktrue2 %>%
  group_by(Country) %>%
  count() %>%
  arrange(n)
check 
```

```
## # A tibble: 219 x 2
## # Groups:   Country [219]
##    Country                 n
##    <chr>               <int>
##  1 Afghanistan             1
##  2 Albania                 1
##  3 Algeria                 1
##  4 American Samoa          1
##  5 Andorra                 1
##  6 Angola                  1
##  7 Anguilla                1
##  8 Antigua and Barbuda     1
##  9 Argentina               1
## 10 Armenia                 1
## # ... with 209 more rows
```
…
Problem 4: I'm going to try and not totally blatantly copy code, i.e. the below code is me trying to replicate their method of tidying without looking. (I will of course copy their string change code because I don't really know how to do that.) First, tidy the data: 

```r
( who_tidy <- who %>%
  gather(new_sp_m014:newrel_f65, key = "key", value = "cases") %>%
  mutate(key = stringr::str_replace(key, "newrel", "new_rel")) %>%
  select(-(iso2:iso3)) %>%
  separate(col = "key", into = c("timing", "type", "sex_agegroup"), sep = "_") %>%
  separate(col = "sex_agegroup", into = c("sex", "age"), sep = 1)  %>%
  replace(is.na(.), 0) %>%
  arrange(desc(cases)) )
```

```
## # A tibble: 405,440 x 7
##    country  year timing type  sex   age    cases
##    <chr>   <int> <chr>  <chr> <chr> <chr>  <dbl>
##  1 India    2007 new    sn    m     3544  250051
##  2 India    2007 new    sn    f     3544  148811
##  3 China    2013 new    rel   m     65    124476
##  4 China    2013 new    rel   m     5564  112558
##  5 India    2007 new    ep    m     3544  105825
##  6 India    2007 new    ep    f     3544  101015
##  7 China    2013 new    rel   m     4554  100297
##  8 India    2009 new    sp    m     3544   90830
##  9 India    2008 new    sp    m     3544   90498
## 10 India    2010 new    sp    m     3544   90440
## # ... with 405,430 more rows
```
…
```
## Warning: funs() is soft deprecated as of dplyr 0.8.0
## please use list() instead
## 
##   # Before:
##   funs(name = f(.))
## 
##   # After: 
##   list(name = ~ f(.))
## This warning is displayed once per session.
```

```
## # A tibble: 219 x 2
##    country                          total_cases
##    <chr>                                  <dbl>
##  1 China                                8389839
##  2 India                                7098552
##  3 South Africa                         3010272
##  4 Indonesia                            2909925
##  5 Bangladesh                           1524034
##  6 Viet Nam                              965665
##  7 Democratic Republic of the Congo      960902
##  8 Philippines                           952828
##  9 Russian Federation                    926236
## 10 Pakistan                              905629
## # ... with 209 more rows
```
  
Next, year: 

```r
( year <- who_tidy %>%
  select(year, total_cases = cases) %>%
  group_by(year) %>%
  summarize_each(funs(sum)) %>%
  arrange(year) )
```

```
## # A tibble: 34 x 2
##     year total_cases
##    <int>       <dbl>
##  1  1980         959
##  2  1981         805
##  3  1982         824
##  4  1983         786
##  5  1984         814
##  6  1985         799
##  7  1986         754
##  8  1987         670
##  9  1988         682
## 10  1989         654
## # ... with 24 more rows
```
…
Welp, that's probably why. Only 17 observations with a `cases` value above 100 appeared before 1995! I bet it's because some data didn't start getting entered until 1995 or later. Many epidemiological datasets are incomplete because certain countries have poorer reporting standards and didn't begin reporting data on disease incidence until more recent years. Not only that, but these countries also tend to have higher rates of TB. India and China probably fit into this category. Let's check: 
 

```r
( investigate2 <- who_tidy %>%
    filter(country == "India" | country == "China") %>%
    filter(cases != 0) %>%
    arrange(year) )
```

```
## # A tibble: 620 x 7
##    country  year timing type  sex   age   cases
##    <chr>   <int> <chr>  <chr> <chr> <chr> <dbl>
##  1 China    1995 new    sp    m     2534  18306
##  2 China    1995 new    sp    m     3544  15487
##  3 China    1995 new    sp    m     5564  13489
##  4 China    1995 new    sp    f     2534  13250
##  5 China    1995 new    sp    m     4554  13105
##  6 China    1995 new    sp    m     1524  12791
##  7 China    1995 new    sp    f     1524  10890
##  8 China    1995 new    sp    m     65    10130
##  9 China    1995 new    sp    f     3544   8376
## 10 China    1995 new    sp    f     4554   5679
## # ... with 610 more rows
```
…
```r
#Now, let's visualize the distribution: 

(who_tidy_2 <- who_tidy %>%
  filter(cases != 0) %>%
  arrange(cases) )
```

```
## # A tibble: 64,966 x 7
##    country         year timing type  sex   age   cases
##    <chr>          <int> <chr>  <chr> <chr> <chr> <dbl>
##  1 Albania         1998 new    sp    m     014       1
##  2 Albania         2008 new    sp    m     014       1
##  3 American Samoa  1997 new    sp    m     014       1
##  4 Armenia         1995 new    sp    m     014       1
##  5 Armenia         2002 new    sp    m     014       1
##  6 Armenia         2007 new    sp    m     014       1
##  7 Armenia         2009 new    sp    m     014       1
##  8 Armenia         2012 new    sp    m     014       1
##  9 Australia       1997 new    sp    m     014       1
## 10 Australia       2001 new    sp    m     014       1
## # ... with 64,956 more rows
```
…
